{
  "type": "service_account",
  "project_id": "test123-f8194",
  "private_key_id": "baa7493dbb0b8ec09662fd673c8f3221d91fe371",
  "private_key": "-----BEGIN PRIVATE KEY-----\nMIIEvgIBADANBgkqhkiG9w0BAQEFAASCBKgwggSkAgEAAoIBAQC9EpoHvwS4J6He\n/GTzcFHX0BlOtnFOklYkvoZ2M+d8gdvVGtKGvobvce8jKjLUj+kcMxePjVJWT1/F\nrIO9A9Wjxtt2WAcqG4T6M3IuiygNz/zMkoTPDOrpWsCgP/KRug63fvWQKfuPm/8S\n9vLyipmsMbCKeg0GlEcYbTL6/YXmh6jeDRrp0gyE7hPznplhZ4vUFTzvQGZHtYmH\n/h0vE0M7XCBdhAWbFoEIxoamzHIPY35tZVnF1eh79ImjbOzYJb4v8R2IczWaF06A\nAUfDV4dYoGTixcctIhcQ6Cwnso3Xg/rk5O8DScRuHezhgRp0TG1naYGBtcwFwp3L\nQlKW7EnFAgMBAAECggEAD1/gW5SPsdkzLfqQdkU3ZS5cUyITHk8C/JOWQ9gI+6m5\nnQoZ0sV9G80ZeN65FGosC/7RlyWS65wiZGTDWk7iA/fV0mPqbTpLUBHNN/YD3fUA\nOwhdDqh1FQsBUpFF9yNN3WOlsevgCLeoKxF0BFSl610nsb2mqoF13d7KAE6LoV5Z\n4O1zvKHkgwg2q5PomcSHZCMU1ga6SI6/5McXUh9tzwAnUU9TfRlJ44EoxSs2rGnk\nEApk3wLqV1EY2uJ6ffxnXSgjEsyzeFy8VbOGU7BVnsHRTMKJjQFFTgvAJJwBozBa\nkglAnB6/jX4Bi2h8+InbLsyf+pjNoEKcgHkpBlRu3wKBgQDgZq+n//RV0+hXpYjo\nSgVs3N3EOrblUdmX9GChBMvLy0p/aAjp/HzhB7zZjsFdSBLn/6rU8Kmes70LsWWl\nTZQwmgtrkOmU7fvsbGBmTTgRGLdxOI9knVUmdvjuvvqjzAzYBBczYPdqCadsMuXl\nRUcw0l5L1EPciBNg1H6D6cWfdwKBgQDXsmEXgpRD7OoUi0G5wO77vwe1HYEK0oiy\nbAZk7cGCWoq3UGrCwv/NK1UhQcXNeAByNizeUrq150an07d8rjWbwv8WhUJXzehR\nWLy3lBUikFoPuylYChrLNoCPcqeuhFQGPK8WA8nk6cGXcKDXio5nunt1w9MzZ6wD\n2esmcQCHowKBgBMJoy1lkZ0WdUe6S3spjHxH4KidMpcR8pvpp6kBdyi6/n8AnID9\nYrrUpTjv24fGbZQxJJUcNce5B/jN/AmiI0hcSUu+55Iy/oR4TVVgh7krl6SLX97x\nWiABR+05Vpo+3XgWIMHDIDpmx0VurAJfdkK2FjnosDktcjdsz67xTkrRAoGBAIVJ\ns3nFtT0sP5ImY50XvhZO+8JN0xoO823eFy1zRmr47FNPHEnyGgR8zIRakpLfntb0\n51ETKlGR8zVuPSqMtI/mNZ+DBXYgxXjPLv76QP002pJyA6BlzhzZNyRto3TSTOH1\nyfP+r1oHoRul+551/n3W3MfvFKnlXIScuxTsK3mlAoGBAJK7XsSPMLF93jyDFh4L\n4VLRqRWo4vLSfh8kUxVLXISIrtCb7RUfjWUIvyKIYY1roPyNIiFVTPMiJZTkilNf\ndNXHCcDN8sbVp4+vd7yZIVatDw0fYgH72YR/E+c9feXyEcDUH8ZQwzjc8Jc7d1nZ\nNpH4tqGOyN2O64FbPQmdXjMA\n-----END PRIVATE KEY-----\n",
  "client_email": "test123-f8194@appspot.gserviceaccount.com",
  "client_id": "111057232277738095071",
  "auth_uri": "https://accounts.google.com/o/oauth2/auth",
  "token_uri": "https://oauth2.googleapis.com/token",
  "auth_provider_x509_cert_url": "https://www.googleapis.com/oauth2/v1/certs",
  "client_x509_cert_url": "https://www.googleapis.com/robot/v1/metadata/x509/test123-f8194%40appspot.gserviceaccount.com"
}
